<?xml version="1.0" encoding="UTF-8"?>
<svg width="31px" height="18px" viewBox="0 0 31 18" version="1.1" xmlns="http://www.w3.org/2000/svg" xmlns:xlink="http://www.w3.org/1999/xlink">
    <!-- Generator: Sketch 50.2 (55047) - http://www.bohemiancoding.com/sketch -->
    <title>Group 2</title>
    <desc>Created with Sketch.</desc>
    <defs></defs>
    <g id="home" stroke="none" stroke-width="1" fill="none" fill-rule="evenodd">
        <g id="667-320-home" transform="translate(-269.000000, -31.000000)" fill="#000000">
            <g id="Group-2" transform="translate(269.000000, 31.000000)">
                <rect id="Rectangle-11" x="0" y="0" width="31" height="2"></rect>
                <rect id="Rectangle-11-Copy" x="0" y="8" width="31" height="2"></rect>
                <rect id="Rectangle-11-Copy-2" x="0" y="16" width="31" height="2"></rect>
            </g>
        </g>
    </g>
</svg>